{
    "title": "Students.Active",
    "model": "Students",
    "searchExpression":"indexof(studentIdentifier, '${text}') ge 0 or indexof(person/familyName, '${text}') ge 0 or indexof(person/givenName, '${text}') ge 0 or indexof(user/name, '${text}') ge 0 or indexof(studyProgram/name, '${text}') ge 0 or indexof(studentStatus/name, '${text}') ge 0",
    "selectable": true,
    "multipleSelect": true,
    "columns": [
      {
        "name":"id",
        "property": "id",
        "hidden": true
      },
      {
        "name":"studyProgram",
        "property": "studyProgramId",
        "hidden": true
      },
      {
        "name":"studentIdentifier",
        "property": "studentIdentifier",
        "title":"Students.studentIdentifier"
      },
      {
        "name":"person/familyName",
        "property": "familyName",
        "title":"Students.fullName",
        "formatter": "TemplateFormatter",
        "formatString": "${familyName} ${givenName}"
      },
      {
        "name":"person/givenName",
        "property": "givenName",
        "title":"Students.GivenName",
        "hidden": true
      },
      {
        "name":"studyProgram/abbreviation",
        "property": "studyProgram",
        "title":"Students.studyProgram"
      },
      {
        "name":"studyProgramSpecialty/abbreviation",
        "property": "studyProgramSpecialty",
        "title":"Students.Specialty"
      },
      {
        "name":"semester",
        "property": "semester",
        "title":"Students.semester"
      },
      {
        "name":"inscriptionYear/alternateName",
        "property": "inscriptionYear",
        "title":"Students.inscriptionYear"
      },
      {
        "name":"inscriptionPeriod/name",
        "property": "inscriptionPeriod",
        "title":"Students.inscriptionPeriod",
        "formatter": "TranslationFormatter",
        "formatString": "Periods.${value}"
      },
      {
        "name":"studentStatus/alternateName",
        "property": "studentStatus",
        "title":"Students.studentStatus",
        "hidden": true
      }
    ],
    "criteria": [
      {
        "name": "studentIdentifier",
        "filter": "(studentIdentifier eq '${value}')",
        "type": "text"
      },
      {
        "name": "studentName",
        "filter": "(indexof(person/familyName, '${value}') ge 0 or indexof(person/givenName, '${value}') ge 0)",
        "type": "text"
      },
      {
        "name": "username",
        "filter": "(indexof(user/name, '${value}') ge 0)",
        "type": "text"
      },
      {
        "name": "studyProgram",
        "filter": "(studyProgram eq ${value})",
        "type": "text"
      },
      {
        "name": "studyProgramSpecialty",
        "filter": "(studyProgramSpecialty eq '${value}')",
        "type": "text"
      },
      {
        "name": "inscriptionMode",
        "filter": "(inscriptionMode/id eq '${value}')",
        "type": "text"
      },
      {
        "name": "inscriptionYear",
        "filter": "(inscriptionYear/id eq '${value}')",
        "type": "text"
      },
      {
        "name": "inscriptionPeriod",
        "filter": "(inscriptionPeriod/id eq '${value}')",
        "type": "text"
      },
      {
        "name": "semester",
        "filter": "(semester eq '${value}')",
        "type": "text"
      }
    ],
    "defaults":{
      "filter": "(department eq ${currentDepartment} and studentStatus/alternateName eq 'active')"
    },
    "paths" : [
    ]
  }
