{
  "title": "Graduations.All",
  "model": "GraduationEvents",
  "searchExpression": "indexof(name, '${text}') ge 0 or indexof(graduationYear/alternateName, '${text}') ge 0 )",
  "columns": [
    {
      "name":"id",
      "property": "id",
      "formatter": "ActionLinkFormatter",
      "hidden": true,
      "virtual": true,
      "actions" : [
        {
          "title": "Labels.EditLink",
          "href": "#/graduations/list/opened/(modal:${id}/edit)",
          "role": "edit"
        },
        {
          "title": "Graduations.ChangeStatus",
          "href": "#/graduations/${id}/dashboard/overview/(modal:status)",
          "role": "action"
        }
      ]
    },
    {
      "name": "name",
      "property": "title",
      "title": "Graduations.GraduationTitle"
    },
    {
      "name": "graduationYear/alternateName",
      "property": "year",
      "title": "Graduation.Year",
      "hidden": true
    },
    {
      "name": "graduationPeriod/name",
      "property": "period",
      "title": "Graduations.Period"
    },
    {
      "name": "startDate",
      "property": "startDate",
      "title": "Graduations.GraduationDate",
      "formatter": "DateTimeFormatter",
      "formatString": "shortDate"
    },
    {
      "name": "validFrom",
      "property": "validFrom",
      "title": "Graduations.RequestPeriodStart",
      "formatter": "DateTimeFormatter",
      "formatString": "shortDate"
    },
    {
      "name": "validThrough",
      "property": "validThrough",
      "title": "Graduations.RequestPeriodEnd",
      "formatter": "DateTimeFormatter",
      "formatString": "shortDate"
    },
    {
      "name": "eventStatus/alternateName",
      "property": "eventStatus",
      "title": "Graduations.Status",
      "formatter": "TranslationFormatter",
      "formatString": "EventStatuses.${value}"
    },
    {
      "name": "id",
      "formatter": "ButtonFormatter",
      "formatString": "#/graduations/list/opened/(modal:${id}/edit)",
      "className": "text-center",
      "formatOptions": {
        "buttonContent": "<i class=\"far fa-edit text-indigo\"></i>",
        "buttonClass": "btn btn-default"
      }
    },
    {
      "name": "id",
      "virtual" : true,
      "formatter": "ButtonFormatter",
      "formatString": "#/graduations/${id}/dashboard",
      "className": "text-center",
      "formatOptions": {
        "buttonContent": "<i class=\"far fa-eye text-indigo\"></i>",
        "buttonClass": "btn btn-default"
      }
    }
  ],
  "defaults": {
    "filter": "(organizer eq ${currentDepartment})",
    "orderBy": "graduationYear desc,graduationPeriod desc,name asc"
  },
  "criteria": [
    {
      "name": "title",
      "filter": "(indexof(name, '${value}') ge 0)",
      "type": "text"
    },
    {
      "name": "yearId",
      "filter": "(graduationYear/id eq '${value}')",
      "type": "text"
    },
    {
      "name": "period",
      "filter": "(graduationPeriod/alternateName eq '${value}')",
      "type": "text"
    },
    {
      "name": "currentYear",
      "filter": "(graduationYear eq '${currentYear}')",
      "type": "text"
    },
    {
      "name": "eventStatus",
      "filter": "(eventStatus eq '${value}')",
      "type": "text"
    }
  ],
  "paths": [
    {
      "name": "Graduations.Opened",
      "alternateName": "list/opened",
      "show": true,
      "filter": {
        "eventStatus": "EventOpened"
      }
    },
    {
      "name": "Graduations.All",
      "alternateName": "list/index",
      "show": true,
      "filter": {
      }
    }
  ]
}
