{
    "columns": [
        {
            "name": "name",
            "title": "Settings.Attributes.name",
            "hidden": false
        },
        {
            "name": "description",
            "title": "Settings.Attributes.description",
            "hidden": false
        },
        {
            "name": "reportCategory/name",
            "property": "reportCategory",
            "title": "Reports.Attributes.reportCategory",
            "hidden": false
        },
        {
            "name": "url",
            "title": "Settings.Attributes.url",
            "hidden": false
        },
      {
        "name": "signReport",
        "formatter": "TrueFalseFormatter",
        "title": "Reports.Attributes.signReport"
      },
        {
            "name": "id",
            "formatter": "ButtonFormatter",
            "formatString":"(modal:edit)",
            "className": "text-center",
            "formatOptions": {
                "buttonContent": "<i class=\"far fa-edit text-indigo\"></i>",
                "buttonClass": "btn btn-default"
            }
        }
    ]
}
