{
	"model": "Instructors",
  "settings": {
    "i18n": {
      "el": {
        "Edit the name of the instructor": "Ορίστε το όνομα του διδάσκοντα",
        "Edit the family name of the instructor": "Ορίστε το επώνυμο του διδάσκοντα",
        "Edit the middle name of the instructor": "Ορίστε το μεσαίο όνομα του διδάσκοντα",
        "Edit the title (salutation) of the instructor.": "Ορίστε τον τίτλο του διδάσκοντα",
        "This should have a valid email format eg. user@example.com": "Πρέπει να έχει μια έγκυρη μορφή ηλεκτρονικού ταχυδρομείου π.χ. user@example.com",
        "Select the department the instructor belongs to": "Επιλέξτε το τμήμα στο οποίο ανήκει ο διδάσκοντας",
        "Edit the registration number of the instructor. It should contain up to 20 characters": "Ορίστε τον αριθμό μητρώου του διδάσκοντα. Πρέπει να περιέχει έως 20 χαρακτήρες",
        "Input the home phone number of the instructor. The number must contain the country code.": "Πληκτρολογήστε το σταθερό τηλέφωνο του διδάσκοντα. Πρέπει να περιέχει τον κωδικό της χώρας.",
        "Input the work phone number of the instructor. The number must contain the country code.": "Πληκτρολογήστε το τηλέφωνο εργασίας του διδάσκοντα. Πρέπει να περιέχει τον κωδικό της χώρας.",
		"SSN": "ΑΜΚΑ",
		"The text": "Το κείμενο",
		"Alternate Email": "Εναλλακτικό email",
		"Identity Country": "Χώρα Έκδοσης Ταυτότητας",
		"Additional notes about the instructor (up to 255 characters).": "Επιπρόσθετες σημειώσεις για τον διδάσκοντα (μέχρι 255 χαρακτήρες).",
		"<p style=\"margin-bottom:0px\">Date modified</p>": "<p style=\"margin-bottom:0px\">Ημερομηνία τελευταίας τροποποίησης</p>",
		"Institute identifier": "ΑΠΜ",
        "Set the registration number of the instructor. It should contain up to 20 characters": "Ορίστε τον αριθμό μητρώου του διδάσκοντα (μέχρι 20 αριθμητικούς χαρακτήρες).",
		"Set the instructor institute identifier (up to 20 characters)": "Ορίστε τον ΑΠΜ του διδάσκοντα (μέχρι 20 αριθμητικούς χαρακτήρες)."
      }
    }
  },
	"components": [
		{
			"html": "<p style=\"margin-bottom:0px\">Date modified</p>",
			"type": "content",
			"input": false,
			"customConditional": "show = !!data.dateModified && !!data.locale && !!data.locale.inLanguage"
		},
		{
			"html": "<span>{{moment(data.dateModified).locale(data.locale.inLanguage).format('llll')}}</span>",
			"type": "content",
			"input": false,
			"customConditional": "show = !!data.dateModified && !!data.locale && !!data.locale.inLanguage;",
			"customClass": "mb-4"
		},
		{
		"label": "Tabs",
		"type": "tabs",
		"key": "tabs1",
		"path": "tabs1",
		"input": false,

		"components": [{
			"label": "General Information",

			"components": [{

			"type": "fieldset",
			"legend": "User Information",
			"components": [
				{
					"columns": [
						{
							"components": [
								{
									"label": "Given Name",
									"labelPosition": "top",
									"widget": {
										"type": "input"
									},
									"validate": {
										"required": true
									},
									"key": "givenName",
									"type": "textfield",
									"input": true,
                  "description": "Edit the name of the instructor"
								}
							],
							"width": 4
						},
						{
							"components": [
								{
									"label": "Family Name",
									"labelPosition": "top",
									"widget": {
										"type": "input"
									},
									"validate": {
										"required": true
									},
									"key": "familyName",
									"type": "textfield",
									"input": true,
                  "description": "Edit the family name of the instructor"
								}
							],
							"width": 4
						},
						{
							"components": [
								{
									"label": "Middle Name",
									"labelPosition": "top",
									"widget": {
										"type": "input"
									},
									"validate": {
										"required": false,
										"maxLength": 5
									},
									"key": "middleName",
									"type": "textfield",
									"input": true,
                  "description": "Edit the middle name of the instructor"
								}
							],
							"width": 4
						}
					],
					"customClass": "text-dark",
					"hideLabel": true,
					"type": "columns",
					"input": false
				},
				{
					"columns": [
						{
							"components": [
								{
									"label": "Title",
									"labelPosition": "top",
									"widget": {
										"type": "input"
									},
									"validate": {
										"required": false
									},
									"key": "title",
									"type": "textfield",
									"input": true,
                  "description": "Edit the title (salutation) of the instructor."
								}
							],
							"width": 4
						},
						{
							"components": [
								{
									"label": "Email",
									"labelPosition": "top",
									"widget": {
										"type": "input"
									},
									"validate": {
										"required": true
									},
									"key": "email",
									"type": "email",
									"input": true,
                  "description": "This should have a valid email format eg. user@example.com"
								}
							],
							"width": 4
						},
						{
							"components": [
								{
									"label": "Alternate Email",
									"labelPosition": "top",
									"widget": {
										"type": "input"
									},
									"key": "person.alternateEmail",
									"type": "email",
									"input": true,
									"description": "This should have a valid email format eg. user@example.com"
								}
							],
							"width": 4
						}
					],
					"customClass": "text-dark",
					"hideLabel": true,
					"type": "columns",
					"input": false
				},
				{
					"columns": [
						{
							"components": [
								{
									"label": "Birth Date",
									"labelPosition": "top",
									"spellcheck": true,
									"enableTime": false,
									"customOptions": {
										"dateFormat": "yyyy-MM-dd",
										"allowInput": true
									},
									"widget": {
										"type": "calendar"
									},
									"key": "person.birthDate",
									"type": "datetime",
									"format": "dd/MM/yyyy",
									"input": true,
									"defaultValue": null
								}
							],
							"width": 4
						},
						{
							"components": [
								{
									"label": "Gender",
									"labelPosition": "top",
									"placeholder": "Choose Gender",
									"widget": "choicesjs",
									"searchEnabled": false,
									"template": "<span class='d-block pr-5 text-truncate'>{{ item.name }}</span>",
									"type": "select",
									"input": true,
									"dataSrc": "url",
									"data": {
										"url": "Genders/?$select=id,name,alternateName",
										"headers": []
									},
									"key": "gender",
									"dataType": "object",
									"idPath": "id",
									"lazyLoad": false,
									"selectValues": "value",
									"validate": {
										"required": true
									}
								}
							],
							"width": 4
						},
						{
							"components": [
								{
									"label": "SSN",
									"labelPosition": "top",
									"key": "person.SSN",
									"widget": {
										"type": "input"
									},
									"type": "textfield",
									"input": true,
									"validate": {
										"required": false
									}
								}
							],
							"width": 4
						}
					],
					"customClass": "text-dark",
					"hideLabel": true,
					"type": "columns",
					"input": false
				},
				{
					"columns": [
						{
							"components": [
								{
									"label": "Identity Card",
									"labelPosition": "top",
									"key": "person.identityCard",
									"widget": {
										"type": "input"
									},
									"type": "textfield",
									"input": true,
									"validate": {
										"required": false
									}
								}
							],
							"width": 4
						},
						{
							"components": [
								{
									"type": "select",
									"label": "Identity Type",
									"key": "person.identityType",
									"input": true,
									"dataSrc": "url",
									"data": {
										"url": "IdentityTypes",
										"headers": []
									},
									"template": "{{ item.name }}",
									"valueProperty": "identifier",
									"selectValues": "value",
									"validate": {
										"required": false
									},
									"searchEnabled": false,
									"lazyLoad": false
								}
							],
							"width": 4
						},
						{
							"components": [
								{
									"label": "Identity Date",
									"labelPosition": "top",
									"spellcheck": true,
									"enableTime": false,
									"customOptions": {
										"dateFormat": "yyyy-MM-dd",
										"allowInput": true
									},
									"widget": {
										"type": "calendar"
									},
									"key": "person.identityDate",
									"type": "datetime",
									"format": "dd/MM/yyyy",
									"input": true,
									"defaultValue": null
								}
							],
							"width": 4
						}
					],
					"customClass": "text-dark",
					"hideLabel": true,
					"type": "columns",
					"input": false
				},
				{
					"columns": [
						{
							"components": [
								{
									"label": "Identity Authority",
									"labelPosition": "top",
									"key": "person.identityAuthority",
									"widget": {
										"type": "input"
									},
									"type": "textfield",
									"input": true,
									"validate": {
										"required": false
									}
								}
							],
							"width": 4
						},
						{
							"components": [
								{
									"type": "select",
									"label": "Identity Country",
									"key": "person.identityCountry",
									"input": true,
									"dataSrc": "url",
									"data": {
										"url": "Countries?$top={{limit}}&$skip={{skip}}&$select=id,name&$filter=indexof(name, '{{encodeURIComponent(search||'')}}') ge 0&$orderby=name",
										"headers": []
									},
									"template": "{{ item.name }}",
									"selectValues": "value",
									"validate": {
										"required": false
									},
									"limit": 15,
									"dataType": "object",
									"idPath": "id",
									"searchField": "search",
									"searchFields": [
										"value.id",
										"value.name"
									],
									"searchThreshold": "0.3",
									"lazyLoad": true,
									"searchEnabled": true
								}
							],
							"width": 4
						},
						{
							"components": [
								{
									"label": "Vat Number",
									"labelPosition": "top",
									"key": "person.vatNumber",
									"widget": {
										"type": "input"
									},
									"type": "textfield",
									"input": true,
									"validate": {
										"required": false
									}
								}
							],
							"width": 4
						}
					],
					"customClass": "text-dark",
					"hideLabel": true,
					"type": "columns",
					"input": false
				},
				{
					"columns": [
						{
							"components": [
								{
									"label": "Vat Office",
									"labelPosition": "top",
									"key": "person.vatOffice",
									"widget": {
										"type": "input"
									},
									"type": "textfield",
									"input": true,
									"validate": {
										"required": false
									}
								}
							],
							"width": 4
						}
					],
					"customClass": "text-dark",
					"hideLabel": true,
					"type": "columns",
					"input": false
				}
			]
		},
		{
			"legend": "Rating Information",
			"type": "fieldset",
			"components": [
				{
					"columns": [
						{
							"components": [
								{
									"label": "Status",
									"labelPosition": "top",
									"placeholder": "Choose Status",
									"widget": "choicesjs",
									"searchEnabled": false,
									"template": "<span class='d-block pr-5 text-truncate'>{{ item.name }}</span>",
									"type": "select",
									"input": true,
									"dataSrc": "url",
									"data": {
										"url": "InstructorStatuses/?$select=id,name,alternateName",
										"headers": []
									},
									"key": "status",
									"dataType": "object",
									"idPath": "id",
									"lazyLoad": false,
									"selectValues": "value",
									"validate": {
										"required": true
									}
								}
							],
							"width": 3
						},
						{
							"components": [
								{
									"label": "Department Name",
									"labelPosition": "top",
									"disabled": false,
									"widget": "choicesjs",
									"validate": {
										"required": false
									},
									"dataSrc": "url",
									"data": {
											"url": "LocalDepartments/?$top=-1&$skip=0&$select=id,name",
											"headers": []
									},
									"searchFields": ["value.id", "value.name"],
									"searchEnabled": true,
									"template": "<span class='d-block pr-5 text-truncate'>{{ item.name }}</span>",
									"selectValues": "value",
									"dataType": "object",
									"idPath": "id",
									"lazyLoad": false,				  
									"key": "department",
									"type": "select",
									"input": true,
                  					"description": "Select the department the instructor belongs to"
								}
							],
							"width": 6
						},
						{
							"components": [
								{
									"label": "Expertise",
									"labelPosition": "top",
									"widget": {
										"type": "input"
									},
									"validate": {
										"required": false
									},
									"key": "expertise",
									"type": "textfield",
									"input": true
								}
							],
							"width": 3
						}
					],
					"customClass": "text-dark",
					"hideLabel": true,
					"type": "columns",
					"input": false
				},
				{
					"columns": [
						{
							"components": [
								{
									"label": "Registration Number",
									"labelPosition": "top",
									"widget": {
										"type": "input"
									},
									"validate": {
										"required": false,
										"maxLength": 20,
										"pattern": "^\\d+$"
									},
									"key": "personCode",
									"type": "textfield",
									"input": true,
                  					"description": "Set the registration number of the instructor. It should contain up to 20 characters"
                				}
							],
							"width": 3
						},
						{
							"components": [
								{
									"label": "Institute identifier",
									"labelPosition": "top",
									"widget": {
										"type": "input"
									},
									"validate": {
										"required": false,
										"maxLength": 20,
										"pattern": "^\\d+$"
									},
									"key": "instructorCode",
									"type": "textfield",
									"input": true,
									"description": "Set the instructor institute identifier (up to 20 characters)"
								}
							],
							"width": 3
						},
						{
							"components": [
								{
									"label": "Specialty",
									"labelPosition": "top",
									"widget": {
										"type": "input"
									},
									"validate": {
										"required": false
									},
									"key": "specialty",
									"type": "textfield",
									"input": true
								}
							],
							"width": 3
						},
						{
							"components": [
								{
									"label": "Category",
									"labelPosition": "top",
									"widget": "choicesjs",
									"validate": {
										"required": false
									},
									"key": "category",
									"searchEnabled": false,
									"type": "textfield",
									"input": true
								}
							],
							"width": 3
						},
						{
							"components": [
								{
									"label": "Create new category",
									"labelPosition": "top",
									"widget": "choicesjs",
									"validate": {
										"required": false
									},
									"key": "category",
									"type": "textfield",
									"input": true,
									"conditional": {
										"json": {
											"===": [
											{
												"var": "data.categoryOption"
											},
												1
											]
										}
									}
								},
								{
									"label": "Choose category from list",
									"labelPosition": "top",
									"dataSrc": "url",
									"data": {
											"url": "Instructors?$select=category&$groupby=category",
											"headers": []
									},
									"template": "<span class='d-block pr-5 text-truncate'>{{ item.category }}</span>",
									"selectValues": "value",
									"valueProperty": "category",
									"widget": "choicesjs",
									"validate": {
										"required": false
									},
									"lazyLoad": false,
									"key": "category",
									"type": "select",
									"input": true,
									"searchFields":[ "value.category" ],
									"conditional": {
										"json": {
											"===": [
											{
												"var": "data.categoryOption"
											},
												2
											]
										}
									}
								}
							],
						"width": 3
						}
					],
					"customClass": "text-dark",
					"hideLabel": true,
					"type": "columns",
					"input": false
				}
			]
		},
		{
			"type": "fieldset",
			"legend": "Contact Details",
			"components": [
				{
					"columns": [
						{
							"components": [
								{
									"label": "Home Address",
									"labelPosition": "top",
									"widget": {
										"type": "input"
									},
									"validate": {
										"required": false
									},
									"key": "homeAddress",
									"type": "textarea",
									"rows": 2,
									"input": true
								}
							],
							"width": 5
						},
						{
							"components": [
								{
									"label": "Postal Code",
									"labelPosition": "top",
									"inputMask": "99999",
									"widget": {
										"type": "input"
									},
									"validate": {
										"required": false
									},
									"key": "homePostalCode",
									"type": "phoneNumber",
									"input": true
								}
							],
							"width": 1
						},
						{
							"components": [
								{
									"label": "City",
									"labelPosition": "top",
									"widget": {
										"type": "input"
									},
									"validate": {
										"required": false
									},
									"key": "homeCity",
									"type": "textfield",
									"input": true
								}
							],
							"width": 3
						},
						{
							"components": [
								{
									"label": "Country",
									"labelPosition": "top",
									"disabled": false,
									"widget": "choicesjs",
									"validate": {
										"required": false
									},
									"dataSrc": "url",
									"data": {
											"url": "Countries/?$select=id,name&$top=-1",
											"headers": []
									},
									"template": "{{ item.name }}",
									"selectValues": "value",
									"valueProperty": "id",
									"lazyLoad": false,
									"key": "country",
									"type": "select",
									"input": true
								}
							],
							"width": 3
						}
					],
					"customClass": "text-dark",
					"hideLabel": true,
					"type": "columns",
					"input": false
				},
				{
					"columns": [
						{
							"components": [
									{
											"label": "Home Phone Number",
											"labelPosition": "top",
											"spellcheck": true,
											"inputMask": "+999999999999",
											"widget": {
													"type": "input"
											},
											"validate": {
													"required": false
											},
											"key": "homePhone",
											"type": "phoneNumber",
											"input": true,
                      "description": "Input the home phone number of the instructor. The number must contain the country code."
									}
							],
							"width": 3
						}
					],
					"customClass": "text-dark",
					"hideLabel": true,
					"type": "columns",
					"input": false
				},
				{
					"columns": [
						{
							"components": [
								{
									"label": "Work Address",
									"labelPosition": "top",
									"widget": {
										"type": "input"
									},
									"validate": {
										"required": false
									},
									"key": "workAddress",
									"type": "textarea",
									"rows": 2,
									"input": true
								}
							],
							"width": 5
						},
						{
							"components": [
								{
									"label": "Postal Code",
									"labelPosition": "top",
									"inputMask":"99999",
									"widget": {
										"type": "input"
									},
									"validate": {
										"required": false
									},
									"key": "workPostalCode",
									"type": "phoneNumber",
									"input": true
								}
							],
							"width": 1
						},
						{
							"components": [
								{
									"label": "City",
									"labelPosition": "top",
									"widget": {
										"type": "input"
									},
									"validate": {
										"required": false
									},
									"key": "workCity",
									"type": "textfield",
									"input": true
								}
							],
							"width": 3
						},
						{
							"components": [
								{
									"label": "Work Country",
									"labelPosition": "top",
									"disabled": false,
									"widget": "choicesjs",
									"validate": {
										"required": false
									},
									"dataSrc": "url",
									"data": {
											"url": "Countries/?$select=id,name&$top=-1",
											"headers": []
									},
									"template": "{{ item.name }}",
									"selectValues": "value",
									"valueProperty": "id",
									"lazyLoad": false,
									"key": "workCountry",
									"type": "select",
									"input": true
								}
							],
							"width": 3
						}
					],
					"customClass": "text-dark",
					"hideLabel": true,
					"type": "columns",
					"input": false
				},
				{
					"columns": [
						{
							"components": [
									{
											"label": "Work Phone Number",
											"labelPosition": "top",
											"spellcheck": true,
											"inputMask": "+999999999999",
											"widget": {
													"type": "input"
											},
											"validate": {
													"required": false
											},
											"key": "workPhone",
											"type": "phoneNumber",
											"input": true,
                      "description": "Input the work phone number of the instructor. The number must contain the country code."
									}
							],
							"width": 3
						}
					],
					"customClass": "text-dark",
					"hideLabel": true,
					"type": "columns",
					"input": false

					}]
				},
				{
					"label": "Notes",
					"labelPosition": "top",
					"spellcheck": true,
					"widget": {
						"type": "input"
					},
					"validate": {
						"maxLength": 255
					},
					"errorLabel": "The text",
					"key": "person.notes",
					"type": "textarea",
					"wysiwyg": false,
					"rows": 5,
					"input": true,
					"description": "Additional notes about the instructor (up to 255 characters)."
				}
			  ]
			},
			{
			  "legend": "Other languages",
			  "key": "fieldSet",
			  "type": "fieldset",
			  "input": false,
			  "label": "Other languages",

			  "components": [{
				"label": "",
				"hideLabel": true,
				"key": "locales",
				"type": "datagrid",
				"disableAddingRemovingRows": true,
				"input": true,
				"customClass": "fix-panel-for-locales",
				"components": [{
				  "collapsible": false,
				  "hideLabel": true,
				  "key": "panel",
				  "type": "panel",
				  "title": "",
				  "hideTitle": true,
				  "input": false,
				  "tableView": false,
				  "components": [{
					  "label": "Language",
					  "tableView": true,
					  "key": "inLanguage",
					  "disabled": "true",
					  "type": "textfield",
					  "input": true
					},
					{
						"label": "Family Name",
						"tableView": true,
						"key": "familyName",
						"type": "textfield",
						"input": true
					},
					{
						"label": "Given Name",
						"tableView": true,
						"key": "givenName",
						"type": "textfield",
						"input": true
					},
					{
					  "label": "Category",
					  "tableView": true,
					  "key": "category",
					  "type": "textfield",
					  "input": true
					},
					{
					  "label": "Specialty",
					  "tableView": true,
					  "key": "specialty",
					  "type": "textfield",
					  "input": true
					}
				  ]
				}]
			  }]

				}
			]
		},
		{
			"type": "button",
      		"theme": "btn btn-indigo",
			"label": "Submit",
			"key": "submit",
			"disableOnInvalid": true,
			"input": true
		}

	]
}
