{
  "model": "Theses",
  "settings": {
    "i18n": {
      "el": {
        "Edit the name of this thesis": "Ορίστε την ονομασία της πτυχιακής εργασίας αυτής",
        "Select one the available thesis types.": "Επιλέξτε έναν από τους διαθέσιμους τύπους εργασίας",
        "Edit the status of the thesis.": "Ορίστε την κατάσταση της εργασίας.",
        "Select the supervising instructor of this thesis": "Επιλέξτε τον επιβλέποντα καθηγητή της εργασίας αυτής",
        "Select the full date this thesis was assigned to the student(s).": "Επιλέξτε την πλήρη ημερομηνία που ανατέθηκαν οι φοιτητές",
        "Select the full date this thesis was delivered.": "Επιλέξτε την πλήρη ημερομηνία που παραδόθηκε η εργασία",
        "Set the full date of the thesis examination": "Ορίστε την ημερομηνία εξέτασης της εργασίας",
        "Set the grade of the thesis": "Ορίστε τον μορφοποιημένο βαθμό της εργασίας",
        "Edit the number of ECTS the student will receive for completing the thesis": "Ορίστε τον αριθμό ECTS που θα πιστωθούν στον φοιτητή για την ολοκλήρωση της.",
        "Edit the number of units the student will receive for completing the thesis": "Ορίστε τον αριθμό διδακτικών μονάδων που θα πιστωθούν στον φοιτητή για την ολοκλήρωση της.",
        "Edit the coefficient that the grade of the thesis counts towards the degree grade.": "Ορίστε τον συντελεστή του βαθμού κατά τον οποίο θα υπολογιστεί η εργασία στον βαθμό του διπλώματος.",
        "Edit the grade scale of this thesis": "Ορίστε την κλίμακα βαθμολογίας της εργασίας",
        "Select the academic cycle this thesis was started by the assigned student(s).": "Επιλέξτε το ακαδημαϊκό κύκλο τον οποίο ξεκίνησαν οι ανατιθέντες φοιτητές την εκπόνηση της",
        "Select the academic year this thesis was started by the assigned student(s).": "Επιλέξτε το ακαδημαϊκό έτος τον οποίο ξεκίνησαν οι ανατιθέντες φοιτητές την εκπόνηση της",
        "Overseer's Full Name": "Ονοματεπώνυμο Υπευθύνου",
        "Change overseer": "Αλλαγή υπευθύνου",
        "Units": "Διδακτικές μονάδες",
        "Thesis subject": "Γνωστικό αντικείμενο εργασίας",
        "Set the thesis subject": "Ορίστε το γνωστικό αντικείμενο της εργασίας"
      }
    }
  },
  "components": [{
      "label": "Tabs",
      "type": "tabs",
      "key": "tabs1",
      "path": "tabs1",
      "input": false,

      "components": [{
        "legend": "Theses Information",
        "key": "fieldSet",
        "type": "fieldset",
        "input": false,
        "label": "Theses General Information",
        "components": [
          {
            "columns": [
              {
              "components": [
                {
                "label": "Theses Name",
                "labelPosition": "top",
                "widget": {
                  "type": "input"
                },
                "validate": {
                  "required": true
                },
                "key": "name",
                "type": "textarea",
                "input": true,
                                    "description": "Edit the name of this thesis"
                                }
                            ],
                            "width": 12,
                            "offset": 0,
                            "push": 0,
                            "pull": 0
                        }
                    ],
                    "customClass": "text-dark",
                    "hideLabel": true,
                    "type": "columns",
                    "input": false
                },
              {
                "columns": [
                  {
                    "components": [
                      {
                        "type": "select",
                        "label": "Thesis Type",
                        "key": "type",
                        "input": true,
                        "dataSrc": "url",
                        "data": {
                          "url": "ThesisTypes",
                          "headers": []
                        },
                        "template": "<span class='col-4 text-truncate'>{{ item.name }}</span>",
                        "selectValues": "value",
                        "lazyLoad": false,
                        "valueProperty": "identifier",
                        "validate": {
                          "required": true
                        },
                        "searchEnabled": false,
                        "description": "Select one the available thesis types."
                      }
                    ],
                    "width": 4,
                    "offset": 0,
                    "push": 0,
                    "pull": 0
                  },
                  {
                    "components": [
                      {
                        "label": "Thesis Status",
                        "labelPosition": "top",
                        "widget": "choicesjs",
                        "dataSrc": "url",
                        "data": {
                          "url": "ThesisStatuses",
                          "headers": []
                        },
                        "template": "<span class='col-4 text-truncate'>{{ item.name }}</span>",
                        "selectValues": "value",
                        "validate": {
                          "required": true
                        },
                        "key": "status",
                        "dataType": "object",
                        "idPath": "id",
                        "lazyLoad": false,
                        "type": "select",
                        "input": true,
                        "description": "Edit the status of the thesis."
                }
              ],
                "width": 3,
                "offset": 0,
                "push": 0,
                "pull": 0
              },
              {
                "components": [
                  {
                    "label": "Thesis subject",
                    "widget": "choicesjs",
                    "dataSrc": "url",
                    "defaultValue": "",
                    "labelPosition": "top",
                    "customConditional": "show = !!(data.department)",
                    "data": {
                      "values": [],
                      "url":  "ThesisSubjects?$top=-1&$filter=department eq '{{data.department}}'",
                      "headers": []
                    },
                    "lazyLoad": false,
                    "searchEnabled": false,
                    "validate": {
                      "required": false
                    },
                    "valueProperty": "id",
                    "template": "{{ item.name }}",
                    "key": "subject",
                    "type": "select",
                    "selectValues": "value",
                    "input": true,
                    "description": "Set the thesis subject"
                  }
                ],
                "width": 6
              },
              {
                "components": [
                  {
                  "label": "Overseer",
                  "widget": "choicesjs",
                  "dataSrc": "url",
                  "defaultValue": "",
                  "labelPosition": "top",
                  "data": {
                    "values": [],
                    "url": "/Instructors?$top={{limit}}&$skip={{skip}}&$select=id,familyName,givenName,department&$expand=department&$filter=indexof(familyName, '{{encodeURIComponent(search||'')}}') ge 0",
                    "headers": []
                  },
                  "searchField": "search",
                  "searchEnabled": true,
                  "selectThreshold": 0.3,
                  "limit": 200,
                  "validate": {
                    "required": true
                  },
                  "template": "{{ item.familyName }} {{ item.givenName }} - {{ item.department.name }}",
                  "dataType": "object",
                  "idPath": "id",
                  "key": "instructor",
                  "type": "select",
                  "logic": [
                    {
                      "name": "disableLogic",
                      "trigger": {
                        "type": "javascript",
                        "javascript": "result = (data.status.alternateName === 'completed')"
                      },
                      "actions": [
                        {
                          "name": "disableAction",
                          "type": "property",
                          "property": {
                            "label": "Disabled",
                            "value": "disabled",
                            "type": "boolean"
                          },
                          "state": true
                        }
                      ]
                  }],
                  "selectValues": "value",
                  "input": true,
                  "lazyLoad": false,
                  "description": "Select the supervising instructor of this thesis"
                }
              ],
                "width": 6
              }
            ],
            "customClass": "text-dark",
            "type": "columns",
            "input": false
          },
          {
            "columns": [
              {
                "components": [
                  {
                  "type": "datetime",
                  "format": "dd/MM/yyyy",
                  "label": "Assigned Date",
                  "labelPosition": "top",
                  "enableTime": false,
                  "key": "startDate",
                  "input": true,
                  "disabled": false,
                        "description": "Select the full date this thesis was assigned to the student(s)."
                      }
                    ],
                    "width": 3,
                    "offset": 0,
                    "push": 0,
                    "pull": 0
                  },
                  {
                    "components": [
                      {
                        "label": "Delivered Date",
                        "labelPosition": "top",
                        "type": "datetime",
                        "format": "dd/MM/yyyy",
                        "enableTime": false,
                        "key": "endDate",
                        "input": true,
                        "description": "Select the full date this thesis was delivered."
                      }
                    ],
                    "width": 3,
                    "offset": 0,
                    "push": 0,
                    "pull": 0
                  },
                  {
                    "components": [
                      {
                        "label": "Exam Date",
                        "labelPosition": "top",
                        "enableTime": false,
                        "key": "examDate",
                        "type": "datetime",
                        "format": "dd/MM/yyyy",
                        "input": true,
                        "description": "Set the full date of the thesis examination"
                      }
                    ],
                    "width": 3,
                    "offset": 0,
                    "push": 0,
                    "pull": 0
                  }
                ],
                "customClass": "text-dark",
                "type": "columns",
                "input": false
              },
              {
                "columns": [
                  {
                    "components": [
                      {
                        "label": "Units",
                        "labelPosition": "top",
                        "widget": {
                          "type": "input"
                        },
                        "validate": {
                          "required": true,
                          "integer": false,
                          "min": 0,
                          "max": 100
                        },
                        "type": "number",
                        "input": true,
                        "key": "units",
                        "description": "Edit the number of units the student will receive for completing the thesis"
                      }
                    ],
                    "width": 3,
                    "offset": 0,
                    "push": 0,
                    "pull": 0
                  },{
                    "components": [
                      {
                        "label": "ECTS",
                        "labelPosition": "top",
                        "widget": {
                          "type": "input"
                        },
                        "validate": {
                          "required": true,
                          "integer": false,
                          "min": 0,
                          "max": 300
                        },
                        "type": "number",
                        "input": true,
                        "key": "ects",
                        "description": "Edit the number of ECTS the student will receive for completing the thesis"
                      }
                    ],
                    "width": 3,
                    "offset": 0,
                    "push": 0,
                    "pull": 0
                  },
                  {
                    "components": [
                      {
                        "label": "Coefficient",
                        "labelPosition": "top",
                        "widget": {
                          "type": "input"
                        },
                        "validate": {
                          "required": true,
                          "integer": false,
                          "min": 0,
                          "max": 100
                        },
                        "type": "number",
                        "input": true,
                        "key": "coefficient",
                        "description": "Edit the coefficient that the grade of the thesis counts towards the degree grade."
                      }
                    ],
                    "width": 3
                  }
            ],
            "customClass": "text-dark",
            "type": "columns",
            "input": false
          },
          {
            "columns": [
              {
                "components": [
                  {
                    "label": "Grade Scale",
                    "labelPosition": "top",
                    "widget": "choicesjs",
                    "dataSrc": "url",
                    "data": {
                      "url": "GradeScales/?$select=id,name",
                      "headers": []
                    },
                    "template": "<span class='d-block pr-5 text-truncate'>{{ item.name }}</span>",
                    "searchFields": ["id", "name"],
                    "selectValues": "value",
                    "validate": {
                      "required": false
                    },
                    "key": "gradeScale",
                    "valueProperty": "id",
                    "lazyLoad": false,
                    "type": "select",
                    "logic": [
                      {
                        "name": "disableLogic",
                        "trigger": {
                          "type": "javascript",
                          "javascript": "result = (data.status.alternateName === 'completed')"
                        },
                        "actions": [
                          {
                            "name": "disableAction",
                            "type": "property",
                            "property": {
                              "label": "Disabled",
                              "value": "disabled",
                              "type": "boolean"
                            },
                            "state": true
                          }
                        ]
                    }],
                    "input": true,
                    "description": "Edit the grade scale of this thesis"
                }
              ],
                "width": 3
              },
              {
                "components": [
                  {
                  "label": "Period",
                  "labelPosition": "top",
                  "widget": "choicesjs",
                  "dataSrc": "url",
                  "data": {
                    "url": "AcademicPeriods/?$select=id,name",
                    "headers": []
                  },
                  "searchFields": ["id", "name"],
                  "template": "<span class='d-block pr-5 text-truncate'>{{ item.name }}</span>",
                  "selectValues": "value",
                  "key": "startPeriod",
                  "type": "select",
                  "input": true,
                  "validate": {
                    "required": false
                  },
                        "description": "Select the academic cycle this thesis was started by the assigned student(s)."
                }
              ],
                "width": 3
              },
              {
                "components": [
                  {
                  "label": "Academic Year",
                  "labelPosition": "top",
                  "widget": "choicesjs",
                  "dataSrc": "url",
                  "data": {
                    "url": "AcademicYears/?$select=id,name&$top=-1",
                    "headers": []
                  },
                  "searchFields": ["id", "name"],
                  "template": "<span class='d-block pr-5 text-truncate'>{{ item.name }}</span>",
                  "selectValues": "value",
                  "key": "startYear",
                  "type": "select",
                  "input": true,
                  "validate": {
                    "required": false
                  },
                        "description": "Select the academic year this thesis was started by the assigned student(s)."
                }
              ],
                "width": 3
              }
            ],
            "customClass": "text-dark",
            "type": "columns",
            "input": false
          },
          {
            "columns": [
              {
              "components": [
                {
                "label": "Notes",
                "labelPosition": "top",
                "widget": {
                  "type": "input"
                },
                "validate": {
                  "required": false
                },
                "key": "notes",
                "type": "textarea",
                "input": true
              }
            ],
              "width": 12,
              "offset": 0,
              "push": 0,
              "pull": 0
            }
          ],
            "customClass": "text-dark",
            "hideLabel": true,
            "type": "columns",
            "input": false
          }
        ]
      },
      {
        "legend": "Other languages",
        "key": "fieldSet",
        "type": "fieldset",
        "input": false,
          "label": "Other languages",

          "components": [
            {
              "label": "",
              "hideLabel": true,
              "key": "locales",
              "type": "datagrid",
              "disableAddingRemovingRows": true,
              "input": true,
              "customClass": "fix-panel-for-locales",
              "components": [
                {
                    "collapsible": false,
                    "hideLabel": true,
                    "key": "panel",
                    "type": "panel",
                    "title": "",
                    "hideTitle": true,
                    "input": false,
                    "tableView": false,
                    "components": [
                          {
                            "label": "Language",
                            "tableView": true,
                            "key": "inLanguage",
                            "disabled": "true",
                            "type": "textfield",
                            "input": true
                },
                        {
                            "label": "Name",
                            "tableView": true,
                            "key": "name",
                            "type": "textfield",
                "input": true
          },
          {
                "label": "Notes",
                            "tableView": true,
                            "key": "notes",
                "type": "textarea",
                "input": true
                        }
                    ]
                }
            ]
            }
          ]
          }
        ]
    },
    {
      "type": "button",
      "label": "Submit",
      "key": "submit",
      "disableOnInvalid": true,
      "input": true
    }
  ]
}
