{
  "settings": {
    "i18n": {
    }
  },
  "components": [
    {
      "type": "fieldset",
      "components": [
        {
          "columns": [
            {
              "components": [
                {
                  "optionsLabelPosition": "right",
                  "inline": true,
                  "tableView": false,
                  "label": "Course types",
                  "values": [
                    {
                      "label": "All",
                      "value": "all"
                    },
                    {
                      "label": "Select types",
                      "value": "selectTypes"
                    }
                  ],
                  "redrawOn": "courseTypes",
                  "customDefaultValue": "setTimeout(() => {data.radio = (data.courseTypes && data.courseTypes.length === 1 && data.courseTypes[0].id == -1) ? 'all' : 'selectTypes'; if (instance && instance.previousValue && instance.previousValue != data.radio) {data.radio = instance.previousValue}}, 150);",
                  "key": "radio",
                  "type": "radio",
                  "input": true
                },
                {
                  "widget": "choicesjs",
                  "label": "Select",
                  "tableView": true,
                  "multiple": true,
                  "dataSrc": "url",
                  "data": {
                    "url": "CourseTypes?$top=-1",
                    "headers": []
                  },
                  "selectValues": "value",
                  "template": "<span class='text-truncate'>{{ item.name || 'All'}}</span>",
                  "key": "courseTypes",
                  "conditional": {
                    "show": true,
                    "when": "radio",
                    "eq": "selectTypes"
                  },
                  "type": "select",
                  "input": true,
                  "lazyLoad": false
                }
              ],
              "width": 4,
              "offset": 0,
              "push": 0,
              "pull": 0,
              "size": "md"
            },
            {
              "components": [
                {
                  "label": "Count totals of",
                  "dataSrc": "url",
                  "data": {
                    "url": "RuleMeasureTypes",
                    "headers": []
                  },
                  "validate": {
                    "required": true
                  },
                  "template": "<span class='text-truncate'>{{ item.name }}</span>",
                  "selectValues": "value",
                  "refreshOnChange": false,
                  "tableView": false,
                  "key": "measureType",
                  "type": "select",
                  "input": true
                }
              ],
              "width": 3,
              "offset": 0,
              "push": 0,
              "pull": 0,
              "size": "md"
            },
            {
              "components": [
                {
                  "label": "RuleOperator",
                  "description": "SetRuleOperator",
                  "labelPosition": "top",
                  "widget": "choicesjs",
                  "dataSrc": "url",
                  "validate": {
                    "required": true
                  },
                  "data": {
                    "url": "RuleOperators",
                    "headers": []
                  },
                  "template": "<span class='d-block pr-5 text-truncate'>{{ item.alternateName }}</span>",
                  "selectValues": "value",
                  "key": "ruleOperator",
                  "defaultValue": "9",
                  "valueProperty": "id",
                  "lazyLoad": false,
                  "type": "select",
                  "input": true
                }
              ],
              "width": 4,
              "offset": 0,
              "push": 0,
              "pull": 0,
              "size": "md"
            },
            {
              "components": [
                {
                  "label": "RuleValue1",
                  "description": "SetRuleValue1",
                  "tableView": true,
                  "validate": {
                    "required": true
                  },
                  "key": "value1",
                  "type": "number",
                  "input": true,
                  "hideOnChildrenHidden": false
                }
              ],
              "size": "md",
              "width": 4,
              "offset": 0,
              "push": 0,
              "pull": 0
            },
            {
              "components": [
                {
                  "label": "RuleValue2",
                  "description": "SetRuleValue2",
                  "tableView": true,
                  "validate": {
                    "required": true
                  },
                  "key": "value2",
                  "type": "number",
                  "input": true,
                  "hideOnChildrenHidden": false,
                  "clearOnHide": true,
                  "customConditional": "show =(data.ruleOperator === 6)"
                }
              ],
              "size": "md",
              "width": 4,
              "offset": 0,
              "push": 0,
              "pull": 0
            }
          ],
          "customClass": "text-dark",
          "hideLabel": true,
          "type": "columns",
          "input": false
        }
      ]
    },
    {
      "legend": "Other conditions",
      "type": "fieldset",
      "components": [
        {
          "columns": [
            {
              "components": [
                {
                  "label": "Course areas",
                  "dataSrc": "url",
                  "customConditional": "show = !!(data.target && data.target.department);",
                  "data": {
                    "values": [],
                    "url": "/CourseAreas?$top=-1&$skip=0&$select=id,name&$filter=department eq {{data.target.department}}",
                    "headers": []
                  },
                  "template": "<span class='text-truncate'>{{ item.name }}</span>",
                  "selectValues": "value",
                  "refreshOnChange": false,
                  "tableView": false,
                  "key": "courseAreas",
                  "type": "select",
                  "multiple": true,
                  "input": true
                }
              ],
              "width": 4,
              "offset": 0,
              "push": 0,
              "pull": 0,
              "size": "md"
            },
            {
              "components": [
                {
                  "label": "Course sectors",
                  "dataSrc": "url",
                  "customConditional": "show = !!(data.target && data.target.department);",
                  "data": {
                    "values": [],
                    "url": "/CourseSectors?$top=-1&$skip=0&$select=id,name&$filter=department eq {{data.target.department}}",
                    "headers": []
                  },
                  "template": "<span class='text-truncate'>{{ item.name }}</span>",
                  "selectValues": "value",
                  "refreshOnChange": false,
                  "tableView": false,
                  "key": "courseSectors",
                  "type": "select",
                  "multiple": true,
                  "input": true
                }
              ],
              "width": 4,
              "offset": 0,
              "push": 0,
              "pull": 0,
              "size": "md"
            },
            {
              "components": [
                {
                  "label": "Course categories",
                  "dataSrc": "url",
                  "data": {
                    "values": [],
                    "url": "/CourseCategories?$top=-1&$skip=0&$select=id,name",
                    "headers": []
                  },
                  "template": "<span class='text-truncate'>{{ item.name }}</span>",
                  "selectValues": "value",
                  "refreshOnChange": false,
                  "tableView": false,
                  "key": "courseCategories",
                  "type": "select",
                  "multiple": true,
                  "input": true
                }
              ],
              "width": 4,
              "offset": 0,
              "push": 0,
              "pull": 0,
              "size": "md"
            }
          ],
          "customClass": "text-dark",
          "hideLabel": true,
          "type": "columns",
          "input": false
        }
      ]
    },
    {
      "type": "button",
      "action": "event",
      "label": "RemoveRule",
      "event": "remove",
      "key": "remove",
      "theme": "danger",
      "disableOnInvalid": false,
      "input": true,
      "tableView": false
    }
  ]
}
