{
  "title": "Specialties",
  "model": "ProgramGroups",
  "columns": [
    {
      "name": "id",
      "formatter": "ButtonFormatter",
      "property": "id",
      "className": "text-center",
      "formatOptions": {
        "buttonContent": "<i class=\"fas fa-edit text-indigo\"></i>",
        "buttonClass": "btn btn-default",
        "commands": [
          { "outlets":
          {
            "modal":["${id}", "edit"]
          }
          }
        ],
        "navigationExtras": {
          "replaceUrl": true,
          "skipLocationChange": true
        }
      }
    },
    {
      "name":"name",
      "title":"StudyPrograms.Name"
    },
    {
      "name": "displayCode",
      "title": "StudyPrograms.DisplayCode"
    },
    {
      "name": "groupType/alternateName",
      "title": "StudyPrograms.GroupType",
      "property": "grouptype",
      "formatter": "TranslationFormatter",
      "formatString": "StudyPrograms.groupType.${value}"
    },
    {
      "name": "parentGroup/name",
      "title": "StudyPrograms.ParentGroup",
      "property": "parentGroupName"

    },
    {
      "name":"program",
      "property": "program",
      "hidden": true
    },
    {
      "name": "id",
      "property": "groupID",
      "formatter": "ButtonFormatter",
      "formatString": "#/study-programs/${program}/preview/groups/${id}",
      "className": "text-center",
      "formatOptions": {
        "buttonContent": "<i class=\"far fa-eye text-indigo\"></i>",
        "buttonClass": "btn btn-default"
      }
    },
    {
      "name": "id",
      "property": "programGroupsRulesID",
      "formatter": "ButtonFormatter",
      "formatString":"(modal:programGroupsRules)",
      "className": "text-center ",
      "formatOptions": {
        "buttonContent": "<i class=\"fas fa-blender text-indigo\"></i>",
        "buttonClass": "btn btn-default",
        "buttonTitle": "Rules.RuleTypes.ProgramGroupsRules",
        "commands": [
          { "outlets":
          {
            "modal":["${id}", "programGroupsRules"]
          }
          }
        ],
        "navigationExtras": {
          "replaceUrl": true,
          "skipLocationChange": true
        }
      }
    }
  ],
  "defaults": {
    "orderBy": "parentGroup/id,name"
  }
}
